{
	content : {
		action : '/idea',
		performatives : [ 'get' ],
		fields : {
			category_id : {
				type : 'text',
				sendAs : 'body_content',
				label : 'Id Category'
			}, 
			user_id : {
				type : 'text',
				sendAs : 'body_content',
				label : 'Id User'
			},
			votes_user_id : {
				type : 'text',
				sendAs : 'body_content',
				label : 'Votes Id User'
			},
			search_text : {
				type : 'text',
				sendAs : 'body_content',
				label : 'Search Text'
			},
			order : {
				type : 'text',
				sendAs : 'body_content',
				label : 'Order'
			},
			order_type : {
				type : 'text',
				sendAs : 'body_content',
				label : 'Order Type'
			}
		}
	},
	id : 'idea_list',
	lang : 'pt'
}